newmtl Portal_2_wall_texture_white
Kd 1 1 1
d 0
s 3 1
map_Kd Portal_2_wall_texture_white.png

newmtl Default-Material
Kd 1 1 1
d 0

newmtl doorRight
Kd 1 1 1
d 0
s 1 1
map_Kd doorRight.png

newmtl tile
Kd 0.9632353 0.9419875 0.9419875
d 0
s 10 10
map_Kd tile.png

newmtl sign02
Kd 1 1 1
d 0
s 1 1
map_Kd sign02.png

newmtl doorLeft
Kd 1 1 1
d 0
s 1 1
map_Kd doorLeft.png

newmtl Sign03
Kd 1 1 1
d 0
s 1 1
map_Kd Sign03.png

newmtl Sign01
Kd 1 1 1
d 0
s 1 1
map_Kd Sign01.png

newmtl roof
Kd 1 1 1
d 0
s 12 12
map_Kd roof.png

